7
H3 C1 N1 O2
C -1.376585 0.161153 0.220259
N 0.097200 -0.004429 -0.005872
H -1.886166 -0.416144 -0.563572
H -1.618906 1.225278 0.128704
H -1.618355 -0.244680 1.208416
O 0.636372 0.801989 -0.741300
O 0.634776 -0.954657 0.532349