LAMMPS data file generated by MAMMOTH version 0.1
37  atoms
44  bonds
78  angles
128  dihedrals
28  impropers
37  atom types
44  bond types
78  angle types
128  dihedral types
28  improper types
 34.49  64.98 	 xlo xhi
-39.90  -9.40 	 ylo yhi
 -1.72  -0.99 	 zlo zhi

 Bond coeffs

  1        601.0   1.37
  2        559.5   1.44
  3        810.6   1.38
  4        595.3   1.37
  5         75.8   1.97
  6        972.8   1.35
  7        786.2   1.08
  8        558.4   1.44
  9        811.1   1.38
 10        786.3   1.08
 11        810.1   1.38
 12        761.8   1.08
 13        808.7   1.38
 14        761.9   1.08
 15        577.6   1.44
 16        594.9   1.37
 17        970.3   1.35
 18        786.2   1.08
 19        601.5   1.37
 20        128.7   1.97
 21        560.6   1.44
 22        786.6   1.08
 23        785.9   1.38
 24        600.9   1.37
 25        577.7   1.44
 26        607.0   1.37
 27        128.7   1.97
 28        973.1   1.35
 29        786.6   1.08
 30        577.7   1.44
 31        788.4   1.38
 32        786.2   1.08
 33        789.0   1.38
 34        761.9   1.08
 35        787.6   1.38
 36        761.8   1.08
 37        558.8   1.44
 38        607.6   1.37
 39        963.6   1.35
 40        786.3   1.08
 41        600.4   1.37
 42         75.4   1.97
 43        576.6   1.44
 44        786.2   1.08

 Angle coeffs

  1        258.7 106.74
  2        289.7 127.45
  3        124.9 128.83
  4        283.5 125.60
  5        326.4 105.11
  6        284.5 125.59
  7        258.7 106.74
  8        282.5 123.91
  9        280.6 123.91
 10        316.3 105.11
 11        124.2 118.05
 12        189.1 127.44
 13        191.8  90.00
 14        269.3 123.70
 15        124.3 118.05
 16        190.7 127.45
 17        271.7 123.70
 18        119.4 118.04
 19        123.1 128.82
 20        309.9 180.00
 21        265.1 123.70
 22        321.9 125.59
 23        316.3 105.11
 24        191.9 127.45
 25        298.8 110.70
 26        273.0 123.70
 27        279.5 106.74
 28        315.0 125.60
 29        283.5 125.60
 30        190.7  90.00
 31        271.1 106.74
 32        279.9 110.70
 33        190.4 127.44
 34        279.4 106.74
 35        275.2 110.70
 36        123.5 124.44
 37        268.3 106.74
 38        279.7 110.70
 39        118.7 124.43
 40        326.6 105.11
 41        124.3 128.83
 42        121.6 128.82
 43        270.9 106.74
 44        124.6 118.04
 45        265.1 123.70
 46        124.6 118.04
 47        124.9 128.83
 48        280.4 123.91
 49        118.3 124.44
 50        119.5 118.04
 51        298.8 110.70
 52        284.6 125.59
 53        289.7 127.45
 54        118.7 124.43
 55        314.8 125.60
 56        124.3 128.83
 57        268.4 106.74
 58        271.4 123.70
 59        191.8  90.00
 60        123.5 124.44
 61        294.2 110.71
 62        118.7 118.05
 63        124.1 124.43
 64        269.2 123.70
 65        124.1 124.43
 66        121.6 128.82
 67        118.7 118.05
 68        293.1 127.44
 69        322.0 125.60
 70        118.3 124.44
 71        123.1 128.82
 72        273.2 123.70
 73        293.1 127.44
 74        190.7  90.00
 75        282.6 123.91
 76        275.5 110.70
 77        294.3 110.71
 78        289.7 180.00

 Dihedral Coeffs

  1     29.2  2  180.0    1.0
  2     16.7  2  180.0    1.0
  3     15.9  2  180.0    1.0
  4      4.3  6    0.0    1.0
  5     37.9  2  180.0    1.0
  6     27.6  2    0.0    1.0
  7     36.3  2    0.0    1.0
  8     14.6  2    0.0    1.0
  9     30.5  2    0.0    1.0
 10     15.1  2  180.0    1.0
 11      4.3  6    0.0    1.0
 12     16.7  2    0.0    1.0
 13     28.9  2  180.0    1.0
 14     29.8  2  180.0    1.0
 15     14.0  2    0.0    1.0
 16     28.9  2  180.0    1.0
 17     14.6  2    0.0    1.0
 18     16.4  2  180.0    1.0
 19     37.1  2    0.0    1.0
 20     15.2  2  180.0    1.0
 21     36.2  2    0.0    1.0
 22     38.3  2    0.0    1.0
 23     31.0  2  180.0    1.0
 24      4.3  6  180.0    1.0
 25      4.2  6  180.0    1.0
 26     16.8  2  180.0    1.0
 27      4.3  6  180.0    1.0
 28     31.2  2  180.0    1.0
 29     17.2  2    0.0    1.0
 30     32.8  2  180.0    1.0
 31     30.5  2    0.0    1.0
 32     26.9  2  180.0    1.0
 33     14.5  2    0.0    1.0
 34     39.8  2    0.0    1.0
 35     16.8  2    0.0    1.0
 36     37.9  2  180.0    1.0
 37     14.5  2    0.0    1.0
 38     16.8  2    0.0    1.0
 39      9.1  2    0.0    1.0
 40      4.3  6  180.0    1.0
 41     38.9  2  180.0    1.0
 42     14.0  2    0.0    1.0
 43     31.7  2  180.0    1.0
 44     41.8  2    0.0    1.0
 45     14.8  2  180.0    1.0
 46     31.1  2  180.0    1.0
 47     16.0  2  180.0    1.0
 48     16.2  2  180.0    1.0
 49     41.8  2    0.0    1.0
 50      9.1  2    0.0    1.0
 51     15.2  2  180.0    1.0
 52      8.7  2    0.0    1.0
 53     16.3  2  180.0    1.0
 54     29.0  2  180.0    1.0
 55     16.2  2  180.0    1.0
 56     26.4  2    0.0    1.0
 57     31.6  2    0.0    1.0
 58     28.5  2  180.0    1.0
 59     37.0  2    0.0    1.0
 60     35.2  2    0.0    1.0
 61     41.4  2  180.0    1.0
 62     27.6  2    0.0    1.0
 63     39.1  2  180.0    1.0
 64     16.3  2  180.0    1.0
 65      8.8  2    0.0    1.0
 66      4.3  6    0.0    1.0
 67     16.6  2    0.0    1.0
 68     13.9  2  180.0    1.0
 69     40.1  2    0.0    1.0
 70     38.4  2    0.0    1.0
 71     13.9  2  180.0    1.0
 72     26.6  2    0.0    1.0
 73     16.8  2  180.0    1.0
 74     14.8  2  180.0    1.0
 75      4.3  6    0.0    1.0
 76     36.2  2    0.0    1.0
 77     39.9  2    0.0    1.0
 78     28.3  2  180.0    1.0
 79     14.7  2    0.0    1.0
 80      4.2  6  180.0    1.0
 81     39.8  2    0.0    1.0
 82      4.3  6    0.0    1.0
 83      4.2  6    0.0    1.0
 84     14.8  2  180.0    1.0
 85     41.3  2  180.0    1.0
 86     30.8  2    0.0    1.0
 87     30.6  2  180.0    1.0
 88     27.6  2    0.0    1.0
 89     29.7  2  180.0    1.0
 90     29.7  2  180.0    1.0
 91      4.2  6    0.0    1.0
 92      4.3  6  180.0    1.0
 93     14.8  2  180.0    1.0
 94     17.2  2    0.0    1.0
 95     40.3  2    0.0    1.0
 96     15.1  2  180.0    1.0
 97     41.4  2  180.0    1.0
 98     37.1  2    0.0    1.0
 99     40.0  2    0.0    1.0
 100     26.9  2    0.0    1.0
 101     16.7  2  180.0    1.0
 102      4.3  6  180.0    1.0
 103     27.7  2    0.0    1.0
 104     15.9  2  180.0    1.0
 105     16.4  2  180.0    1.0
 106     14.7  2    0.0    1.0
 107     27.2  2    0.0    1.0
 108     31.2  2  180.0    1.0
 109     28.8  2  180.0    1.0
 110     40.5  2    0.0    1.0
 111     30.7  2  180.0    1.0
 112     30.5  2    0.0    1.0
 113     41.4  2  180.0    1.0
 114      4.2  6    0.0    1.0
 115     15.9  2  180.0    1.0
 116     16.7  2    0.0    1.0
 117     26.7  2  180.0    1.0
 118     30.5  2    0.0    1.0
 119      4.2  6  180.0    1.0
 120     31.5  2    0.0    1.0
 121     31.2  2  180.0    1.0
 122     32.8  2  180.0    1.0
 123     39.5  2    0.0    1.0
 124     28.0  2  180.0    1.0
 125     28.5  2  180.0    1.0
 126     16.8  2    0.0    1.0
 127     30.7  2    0.0    1.0
 128     40.0  2    0.0    1.0

 Improper coeffs

  1        205.9   0.02
  2        333.9   0.01
  3        173.6   0.02
  4        357.1   0.01
  5        176.7   0.00
  6        782.4   0.00
  7        228.5   0.02
  8        176.7   0.00
  9        331.2   0.02
 10        766.9   0.00
 11        782.3   0.00
 12        340.4   0.02
 13        767.5   0.00
 14        302.1   0.00
 15        305.9   0.00
 16        327.1   0.00
 17        327.8   0.01
 18        340.7   0.02
 19        328.0   0.00
 20        357.2   0.01
 21        307.6   0.00
 22        328.0   0.00
 23        307.5   0.00
 24        302.1   0.00
 25        306.2   0.00
 26        173.5   0.02
 27        226.5   0.02
 28        202.8   0.00

 Masses

  1	 12.011 # C
  2	 14.007 # N
  3	 12.011 # C
  4	 12.011 # C
  5	 12.011 # C
  6	 12.011 # C
  7	 12.011 # C
  8	 12.011 # C
  9	 12.011 # C
 10	 14.007 # N
 11	 12.011 # C
 12	 12.011 # C
 13	 12.011 # C
 14	 14.007 # N
 15	 12.011 # C
 16	 12.011 # C
 17	 12.011 # C
 18	 12.011 # C
 19	 12.011 # C
 20	 12.011 # C
 21	 12.011 # C
 22	 14.007 # N
 23	 12.011 # C
 24	 12.011 # C
 25	  1.008 # H
 26	  1.008 # H
 27	  1.008 # H
 28	  1.008 # H
 29	  1.008 # H
 30	  1.008 # H
 31	  1.008 # H
 32	  1.008 # H
 33	  1.008 # H
 34	  1.008 # H
 35	  1.008 # H
 36	  1.008 # H
 37	 58.693 # Ni

 Atoms 

  1 1   1     0.055    15.3534   -10.9682    -0.4386 #  C
  2 1   2    -0.185    16.4835   -10.1865    -0.4595 #  N
  3 1   3    -0.174    15.6999   -12.3624    -0.4546 #  C
  4 1   4     0.059    17.5325   -11.0739    -0.4880 #  C
  5 1   5    -0.175    17.0525   -12.4280    -0.4850 #  C
  6 1   6    -0.022    14.0592   -10.5039    -0.4063 #  C
  7 1   7    -0.025    18.8656   -10.7369    -0.5164 #  C
  8 1   8     0.058    13.7225    -9.1705    -0.3910 #  C
  9 1   9    -0.175    12.3688    -8.6905    -0.3571 #  C
 10 1  10    -0.184    14.6098    -8.1212    -0.4062 #  N
 11 1  11    -0.173    12.4345    -7.3376    -0.3522 #  C
 12 1  12     0.056    13.8285    -6.9909    -0.3827 #  C
 13 1  13     0.058    19.3299    -9.4424    -0.5207 #  C
 14 1  14    -0.185    18.5486    -8.3120    -0.4971 #  N
 15 1  15    -0.174    20.7239    -9.0957    -0.5512 #  C
 16 1  16     0.058    19.4359    -7.2628    -0.5122 #  C
 17 1  17    -0.175    20.7896    -7.7427    -0.5462 #  C
 18 1  18    -0.024    14.2928    -5.6963    -0.3870 #  C
 19 1  19    -0.025    19.0992    -5.9294    -0.4969 #  C
 20 1  20     0.058    15.6259    -5.3593    -0.4153 #  C
 21 1  21    -0.177    16.1059    -4.0053    -0.4184 #  C
 22 1  22    -0.185    16.6748    -6.2467    -0.4437 #  N
 23 1  23    -0.173    17.4585    -4.0708    -0.4486 #  C
 24 1  24     0.058    17.8050    -5.4651    -0.4645 #  C
 25 1  25     0.144    14.9844   -13.1683    -0.4436 #  H
 26 1  26     0.145    17.6865   -13.2993    -0.5041 #  H
 27 1  27     0.109    13.2592   -11.2300    -0.3919 #  H
 28 1  28     0.109    19.5914   -11.5370    -0.5371 #  H
 29 1  29     0.145    11.4977    -9.3248    -0.3399 #  H
 30 1  30     0.144    11.6289    -6.6221    -0.3301 #  H
 31 1  31     0.144    21.5295    -9.8111    -0.5734 #  H
 32 1  32     0.145    21.6607    -7.1084    -0.5634 #  H
 33 1  33     0.109    13.5670    -4.8962    -0.3665 #  H
 34 1  34     0.109    19.8992    -5.2033    -0.5112 #  H
 35 1  35     0.144    15.4719    -3.1340    -0.3994 #  H
 36 1  36     0.144    18.1740    -3.2649    -0.4596 #  H
 37 1  37     0.182    16.5792    -8.2166    -0.4516 # Ni

 Bonds

  1  1     1   2 #  C  N
  2  2     1   3 #  C  C
  3  3     1   6 #  C  C
  4  4     2   4 #  N  C
  5  5     2  37 #  N Ni
  6  6     3   5 #  C  C
  7  7     3  25 #  C  H
  8  8     4   5 #  C  C
  9  9     4   7 #  C  C
 10 10     5  26 #  C  H
 11 11     6   8 #  C  C
 12 12     6  27 #  C  H
 13 13     7  13 #  C  C
 14 14     7  28 #  C  H
 15 15     8   9 #  C  C
 16 16     8  10 #  C  N
 17 17     9  11 #  C  C
 18 18     9  29 #  C  H
 19 19    10  12 #  N  C
 20 20    10  37 #  N Ni
 21 21    11  12 #  C  C
 22 22    11  30 #  C  H
 23 23    12  18 #  C  C
 24 24    13  14 #  C  N
 25 25    13  15 #  C  C
 26 26    14  16 #  N  C
 27 27    14  37 #  N Ni
 28 28    15  17 #  C  C
 29 29    15  31 #  C  H
 30 30    16  17 #  C  C
 31 31    16  19 #  C  C
 32 32    17  32 #  C  H
 33 33    18  20 #  C  C
 34 34    18  33 #  C  H
 35 35    19  24 #  C  C
 36 36    19  34 #  C  H
 37 37    20  21 #  C  C
 38 38    20  22 #  C  N
 39 39    21  23 #  C  C
 40 40    21  35 #  C  H
 41 41    22  24 #  N  C
 42 42    22  37 #  N Ni
 43 43    23  24 #  C  C
 44 44    23  36 #  C  H

 Angles

  1  1     9  11  12 #  C  C  C
  2  2    20  22  37 #  C  N Ni
  3  3    11   9  29 #  C  C  H
  4  4     7  13  14 #  C  C  N
  5  5     8  10  12 #  C  N  C
  6  6     6   8  10 #  C  C  N
  7  7    13  15  17 #  C  C  C
  8  8    12  18  20 #  C  C  C
  9  9     1   6   8 #  C  C  C
 10 10     1   2   4 #  C  N  C
 11 11    13   7  28 #  C  C  H
 12 12    13  14  37 #  C  N Ni
 13 13     2  37  10 #  N Ni  N
 14 14     6   8   9 #  C  C  C
 15 15    12  18  33 #  C  C  H
 16 16    16  14  37 #  C  N Ni
 17 17     3   1   6 #  C  C  C
 18 18     4   7  28 #  C  C  H
 19 19     9  11  30 #  C  C  H
 20 20     2  37  22 #  N Ni  N
 21 21     7  13  15 #  C  C  C
 22 22    18  20  22 #  C  C  N
 23 23    20  22  24 #  C  N  C
 24 24     8  10  37 #  C  N Ni
 25 25    14  13  15 #  N  C  C
 26 26    18  20  21 #  C  C  C
 27 27     3   5   4 #  C  C  C
 28 28     2   1   6 #  N  C  C
 29 29    10  12  18 #  N  C  C
 30 30    14  37  22 #  N Ni  N
 31 31    21  23  24 #  C  C  C
 32 32     2   4   5 #  N  C  C
 33 33    12  10  37 #  C  N Ni
 34 34    20  21  23 #  C  C  C
 35 35    22  24  23 #  N  C  C
 36 36    24  23  36 #  C  C  H
 37 37    15  17  16 #  C  C  C
 38 38    21  20  22 #  C  C  N
 39 39     8   9  29 #  C  C  H
 40 40    13  14  16 #  C  N  C
 41 41    23  21  35 #  C  C  H
 42 42     5   3  25 #  C  C  H
 43 43     1   3   5 #  C  C  C
 44 44     8   6  27 #  C  C  H
 45 45    11  12  18 #  C  C  C
 46 46    16  19  34 #  C  C  H
 47 47    15  17  32 #  C  C  H
 48 48    16  19  24 #  C  C  C
 49 49    12  11  30 #  C  C  H
 50 50    20  18  33 #  C  C  H
 51 51    10  12  11 #  N  C  C
 52 52    14  16  19 #  N  C  C
 53 53     4   2  37 #  C  N Ni
 54 54    16  17  32 #  C  C  H
 55 55    19  24  22 #  C  C  N
 56 56     3   5  26 #  C  C  H
 57 57     8   9  11 #  C  C  C
 58 58    19  24  23 #  C  C  C
 59 59    10  37  22 #  N Ni  N
 60 60     1   3  25 #  C  C  H
 61 61    14  16  17 #  N  C  C
 62 62     1   6  27 #  C  C  H
 63 63     4   5  26 #  C  C  H
 64 64    17  16  19 #  C  C  C
 65 65    20  21  35 #  C  C  H
 66 66    21  23  36 #  C  C  H
 67 67    24  19  34 #  C  C  H
 68 68    24  22  37 #  C  N Ni
 69 69     2   4   7 #  N  C  C
 70 70    13  15  31 #  C  C  H
 71 71    17  15  31 #  C  C  H
 72 72     5   4   7 #  C  C  C
 73 73     1   2  37 #  C  N Ni
 74 74     2  37  14 #  N Ni  N
 75 75     4   7  13 #  C  C  C
 76 76     2   1   3 #  N  C  C
 77 77     9   8  10 #  C  C  N
 78 78    10  37  14 #  N Ni  N

 Dihedrals

  1  1     1   6   8   9 #  C  C  C  C
  2  2    22  20  18  33 #  N  C  C  H
  3  3    14  16  17  32 #  N  C  C  H
  4  4     1   2  37  10 #  C  N Ni  N
  5  5    21  20  22  37 #  C  C  N Ni
  6  6    10  12  18  20 #  N  C  C  C
  7  7     9  11  12  10 #  C  C  C  N
  8  8    18  20  21  35 #  C  C  C  H
  9  9    18  12  10  37 #  C  C  N Ni
 10 10    22  24  23  36 #  N  C  C  H
 11 11    10  37  22  20 #  N Ni  N  C
 12 12    17  16  19  34 #  C  C  C  H
 13 13     4   7  13  15 #  C  C  C  C
 14 14     7  13  14  16 #  C  C  N  C
 15 15    19  24  23  36 #  C  C  C  H
 16 16     9  11  12  18 #  C  C  C  C
 17 17     7   4   5  26 #  C  C  C  H
 18 18    14  13  15  31 #  N  C  C  H
 19 19     2   4   5   3 #  N  C  C  C
 20 20     8   9  11  30 #  C  C  C  H
 21 21    10   8   9  11 #  N  C  C  C
 22 22    21  20  22  24 #  C  C  N  C
 23 23     6   8  10  12 #  C  C  N  C
 24 24     2  37  10  12 #  N Ni  N  C
 25 25     8  10  37  22 #  C  N Ni  N
 26 26    10  12  18  33 #  N  C  C  H
 27 27    14  37  22  20 #  N Ni  N  C
 28 28     1   2   4   7 #  C  N  C  C
 29 29    11  12  18  33 #  C  C  C  H
 30 30     3   5   4   7 #  C  C  C  C
 31 31     7   4   2  37 #  C  C  N Ni
 32 32    12  18  20  21 #  C  C  C  C
 33 33    19  16  17  32 #  C  C  C  H
 34 34     3   1   2   4 #  C  C  N  C
 35 35     9   8   6  27 #  C  C  C  H
 36 36     5   4   2  37 #  C  C  N Ni
 37 37     6   8   9  29 #  C  C  C  H
 38 38    21  20  18  33 #  C  C  C  H
 39 39    31  15  17  32 #  H  C  C  H
 40 40     4   2  37  10 #  C  N Ni  N
 41 41    23  24  22  37 #  C  C  N Ni
 42 42     6   1   3  25 #  C  C  C  H
 43 43     4   2   1   6 #  C  N  C  C
 44 44    13  15  17  16 #  C  C  C  C
 45 45    24  23  21  35 #  C  C  C  H
 46 46    13  14  16  19 #  C  N  C  C
 47 47     2   4   5  26 #  N  C  C  H
 48 48     2   1   6  27 #  N  C  C  H
 49 49     8   9  11  12 #  C  C  C  C
 50 50    29   9  11  30 #  H  C  C  H
 51 51    16  17  15  31 #  C  C  C  H
 52 52    35  21  23  36 #  H  C  C  H
 53 53    14  16  19  34 #  N  C  C  H
 54 54    15  17  16  19 #  C  C  C  C
 55 55    22  24  19  34 #  N  C  C  H
 56 56     2   4   7  13 #  N  C  C  C
 57 57    19  16  14  37 #  C  C  N Ni
 58 58    16  19  24  23 #  C  C  C  C
 59 59    21  23  24  22 #  C  C  C  N
 60 60    14  13  15  17 #  N  C  C  C
 61 61    11  12  10  37 #  C  C  N Ni
 62 62    14  16  19  24 #  N  C  C  C
 63 63     3   1   2  37 #  C  C  N Ni
 64 64    10   8   6  27 #  N  C  C  H
 65 65    25   3   5  26 #  H  C  C  H
 66 66    14  37  22  24 #  N Ni  N  C
 67 67    23  24  19  34 #  C  C  C  H
 68 68     4   5   3  25 #  C  C  C  H
 69 69    15  13  14  16 #  C  C  N  C
 70 70     1   2   4   5 #  C  N  C  C
 71 71    20  21  23  36 #  C  C  C  H
 72 72    12  18  20  22 #  C  C  C  N
 73 73    14  13   7  28 #  N  C  C  H
 74 74     1   3   5  26 #  C  C  C  H
 75 75     2  37  14  13 #  N Ni  N  C
 76 76    14  16  17  15 #  N  C  C  C
 77 77     1   3   5   4 #  C  C  C  C
 78 78     3   1   6   8 #  C  C  C  C
 79 79     7  13  15  31 #  C  C  C  H
 80 80    13  14  37  22 #  C  N Ni  N
 81 81     8  10  12  11 #  C  N  C  C
 82 82     4   2  37  14 #  C  N Ni  N
 83 83    16  14  37  22 #  C  N Ni  N
 84 84    13  15  17  32 #  C  C  C  H
 85 85    15  13  14  37 #  C  C  N Ni
 86 86     6   1   2  37 #  C  C  N Ni
 87 87    18  20  21  23 #  C  C  C  C
 88 88     1   6   8  10 #  C  C  C  N
 89 89     6   8   9  11 #  C  C  C  C
 90 90     8  10  12  18 #  C  N  C  C
 91 91    12  10  37  22 #  C  N Ni  N
 92 92     1   2  37  14 #  C  N Ni  N
 93 93    12  11   9  29 #  C  C  C  H
 94 94    15  13   7  28 #  C  C  C  H
 95 95    13  14  16  17 #  C  N  C  C
 96 96     2   1   3  25 #  N  C  C  H
 97 97    17  16  14  37 #  C  C  N Ni
 98 98    22  20  21  23 #  N  C  C  C
 99 99    20  21  23  24 #  C  C  C  C
 100 100     2   1   6   8 #  N  C  C  C
 101 101     2   4   7  28 #  N  C  C  H
 102 102    10  37  22  24 #  N Ni  N  C
 103 103     4   7  13  14 #  C  C  C  N
 104 104    22  20  21  35 #  N  C  C  H
 105 105    10  12  11  30 #  N  C  C  H
 106 106    18  12  11  30 #  C  C  C  H
 107 107    16  19  24  22 #  C  C  C  N
 108 108    19  24  22  20 #  C  C  N  C
 109 109    17  16  19  24 #  C  C  C  C
 110 110     9   8  10  12 #  C  C  N  C
 111 111    18  20  22  24 #  C  C  N  C
 112 112    18  20  22  37 #  C  C  N Ni
 113 113     9   8  10  37 #  C  C  N Ni
 114 114     2  37  10   8 #  N Ni  N  C
 115 115    10   8   9  29 #  N  C  C  H
 116 116     3   1   6  27 #  C  C  C  H
 117 117     5   4   7  13 #  C  C  C  C
 118 118     7  13  14  37 #  C  C  N Ni
 119 119     2  37  14  16 #  N Ni  N  C
 120 120     6   8  10  37 #  C  C  N Ni
 121 121     5   3   1   6 #  C  C  C  C
 122 122    19  24  23  21 #  C  C  C  C
 123 123     2   1   3   5 #  N  C  C  C
 124 124     7  13  15  17 #  C  C  C  C
 125 125    11  12  18  20 #  C  C  C  C
 126 126     5   4   7  28 #  C  C  C  H
 127 127    19  24  22  37 #  C  C  N Ni
 128 128    20  22  24  23 #  C  N  C  C

 Impropers

  1  1    24  19  22  23 #  C  C  N  C
  2  2     1   2   3   6 #  C  N  C  C
  3  3     7   4  13  28 #  C  C  C  H
  4  4    14  13  16  37 #  N  C  C Ni
  5  5    19  16  24  34 #  C  C  C  H
  6  6    37   2  10  14 # Ni  N  N  N
  7  7     8   6   9  10 #  C  C  C  N
  8  8     6   1   8  27 #  C  C  C  H
  9  9    16  14  17  19 #  C  N  C  C
 10 10    37   2  14  22 # Ni  N  N  N
 11 11    37  10  22  14 # Ni  N  N  N
 12 12    22  20  24  37 #  N  C  C Ni
 13 13    37   2  10  22 # Ni  N  N  N
 14 14    11   9  12  30 #  C  C  C  H
 15 15     5   3   4  26 #  C  C  C  H
 16 16    23  21  24  36 #  C  C  C  H
 17 17     4   2   5   7 #  C  N  C  C
 18 18     2   1   4  37 #  N  C  C Ni
 19 19     3   1   5  25 #  C  C  C  H
 20 20    10   8  12  37 #  N  C  C Ni
 21 21     9   8  11  29 #  C  C  C  H
 22 22    12  10  11  18 #  C  N  C  C
 23 23    17  15  16  32 #  C  C  C  H
 24 24    15  13  17  31 #  C  C  C  H
 25 25    21  20  23  35 #  C  C  C  H
 26 26    18  12  20  33 #  C  C  C  H
 27 27    20  18  21  22 #  C  C  C  N
 28 28    13   7  14  15 #  C  C  N  C

